<svg width="24" height="24" viewBox="0 0 24 24" fill="none" xmlns="http://www.w3.org/2000/svg">
  <mask id="a" style="mask-type:alpha" maskUnits="userSpaceOnUse" x="0" y="0" width="24" height="24">
    <path fill="#D9D9D9" d="M0 0h24v24H0z"/>
  </mask>
  <g mask="url(#a)">
    <path d="M4.96 21.418c-.55 0-1.02-.196-1.413-.587a1.926 1.926 0 0 1-.587-1.413v-14c0-.55.196-1.02.587-1.413a1.926 1.926 0 0 1 1.413-.587h6a.97.97 0 0 1 .712.287c.192.192.288.43.288.713s-.096.52-.288.712a.968.968 0 0 1-.712.288h-6v14h6c.283 0 .52.096.712.288.192.191.288.429.288.712s-.096.52-.288.713a.968.968 0 0 1-.712.287h-6Zm12.175-8H9.96a.968.968 0 0 1-.713-.287.968.968 0 0 1-.287-.713.97.97 0 0 1 .287-.712.967.967 0 0 1 .713-.288h7.175L15.26 9.543a.917.917 0 0 1-.275-.675c0-.267.092-.5.275-.7a.948.948 0 0 1 .7-.313.946.946 0 0 1 .725.288l3.575 3.575c.2.2.3.433.3.7 0 .267-.1.5-.3.7l-3.575 3.575a.93.93 0 0 1-.712.287 1.02 1.02 0 0 1-.713-.312.972.972 0 0 1-.262-.712.977.977 0 0 1 .287-.688l1.85-1.85Z"
          fill="#151D32"/>
  </g>
</svg>
