<svg width="300" height="200" viewBox="0 0 300 200" fill="none" xmlns="http://www.w3.org/2000/svg">
<path d="M179.511 27.359H50.1113V189.616H179.511V27.359Z" fill="var(--colors-category-artistic-high1)"/>
<path fill-rule="evenodd" clip-rule="evenodd" d="M104.103 104.137C97.8914 105.894 89.2084 116.248 80.3948 131.485C71.5821 146.723 67.4001 171.529 67.3193 180.053L163.66 181.898C163.66 181.898 164.454 112.22 133.698 106.525C120.327 104.049 108.74 102.824 104.103 104.137Z" fill="var(--colors-category-artistic-normal)"/>
<path fill-rule="evenodd" clip-rule="evenodd" d="M97.4372 110.096C90.7355 112.97 76.8578 130.183 88.3485 151.362C99.8382 172.541 101.541 184.269 116.16 182.638C130.779 181.008 134.428 185.105 134.428 178.269C134.428 171.432 130.959 121.131 151.693 121.089C151.693 121.089 138.428 92.517 97.4372 110.096Z" fill="var(--colors-category-artistic-low2)"/>
<path fill-rule="evenodd" clip-rule="evenodd" d="M92.1988 177.343C90.2673 170.742 96.4297 160.764 103.99 163.105C111.548 165.446 122.617 175.189 115.84 179.036C109.063 182.883 94.0038 183.511 92.1988 177.343Z" fill="var(--colors-category-artistic-high1)"/>
<path fill-rule="evenodd" clip-rule="evenodd" d="M90.8578 114.79C89.6459 110.128 91.1797 82.683 91.1797 73.063C91.1797 63.443 99.5359 49.88 114.94 49.908C130.344 49.936 146.494 52.869 145.532 81.632C144.786 103.892 144.235 109.498 142.543 117.21C141.126 123.666 136.45 124.769 129.775 123.363C125.291 122.419 124.96 120.898 125.66 115.053C126.282 109.861 113.462 106.125 107.917 106.952C93.8289 109.053 91.3741 116.777 90.8578 114.79Z" fill="var(--colors-category-artistic-low2)"/>
<path fill-rule="evenodd" clip-rule="evenodd" d="M127.492 88.986C127.354 90.503 127.35 93.3999 127.158 94.4789C126.226 99.726 126.484 99.765 125.965 104.53C125.653 107.389 125.709 113.194 125.295 115.667C123.734 124.999 91.0755 123.314 104.757 108.127C109.581 102.772 108.137 97.611 108.464 89.614C108.676 84.431 127.492 88.986 127.492 88.986Z" fill="var(--colors-category-artistic-normal)"/>
<path fill-rule="evenodd" clip-rule="evenodd" d="M115.193 57.968C108.181 57.939 98.0388 60.282 97.5434 79.11C97.0481 97.938 106.763 103.734 127.295 93.144C127.302 90.303 127.946 84.786 127.788 77.998C127.489 65.151 122.652 57.998 115.193 57.968Z" fill="var(--colors-category-artistic-normal)"/>
<path fill-rule="evenodd" clip-rule="evenodd" d="M177.456 27.359C178.591 27.359 179.511 28.282 179.511 29.42C179.511 46.901 179.511 170.073 179.511 187.554C179.511 188.692 178.591 189.615 177.456 189.615C162.251 189.615 67.3728 189.615 52.1665 189.615C51.0323 189.615 50.1123 188.692 50.1113 187.554C50.1113 170.073 50.1113 46.901 50.1113 29.42C50.1123 28.282 51.0323 27.359 52.1665 27.359C67.3728 27.359 162.251 27.359 177.456 27.359ZM167.551 40.163C167.551 39.95 167.466 39.745 167.316 39.594C167.166 39.443 166.962 39.359 166.75 39.359C157.547 39.359 72.0731 39.359 62.8738 39.359C62.4313 39.359 62.0725 39.718 62.0715 40.161C62.0715 50.757 62.0715 162.898 62.0715 176.307C61.8781 176.544 61.8372 176.873 61.9688 177.151C62.0994 177.429 62.3784 177.606 62.6854 177.606C70.8273 177.615 157.48 177.615 166.75 177.615C166.962 177.615 167.166 177.531 167.316 177.38C167.466 177.229 167.551 177.024 167.551 176.811C167.551 166.057 167.551 50.917 167.551 40.163Z" fill="var(--colors-category-artistic-low1)"/>
<path fill-rule="evenodd" clip-rule="evenodd" d="M227.722 177.648C218.835 191.118 142.338 196.972 144.709 130.368C145.684 102.974 177.548 72.494 211.825 78.56C246.101 84.625 257.35 109.153 261.577 131.167C263.048 138.831 261.607 144.561 258.406 149.813C257.589 151.142 256.254 152.068 254.726 152.365C253.198 152.662 251.615 152.304 250.361 151.377C247.773 149.481 242.919 147.204 234.387 144.282C218.065 138.691 213.226 148.844 213.644 155.243C214.682 171.124 236.423 164.459 227.722 177.648Z" fill="var(--colors-category-artistic-low1)"/>
<path fill-rule="evenodd" clip-rule="evenodd" d="M180.563 162.813C178.4 167.926 172.327 170.368 167.008 168.262C161.69 166.157 159.129 160.296 161.292 155.183C163.455 150.069 169.529 147.628 174.847 149.733C180.166 151.839 182.727 157.7 180.563 162.813Z" fill="var(--colors-category-artistic-high1)"/>
<path fill-rule="evenodd" clip-rule="evenodd" d="M176.704 134.089C174.542 139.203 168.467 141.644 163.149 139.539C157.83 137.433 155.269 131.572 157.433 126.459C159.595 121.346 165.67 118.904 170.989 121.01C176.307 123.115 178.868 128.976 176.704 134.089Z" fill="var(--colors-category-artistic-high1)"/>
<path fill-rule="evenodd" clip-rule="evenodd" d="M191.021 109.785C188.858 114.898 182.785 117.34 177.466 115.234C172.148 113.129 169.587 107.268 171.75 102.154C173.913 97.041 179.987 94.6 185.305 96.705C190.624 98.811 193.185 104.672 191.021 109.785Z" fill="var(--colors-category-artistic-high1)"/>
<path fill-rule="evenodd" clip-rule="evenodd" d="M220.169 102.639C218.007 107.752 211.932 110.194 206.613 108.088C201.295 105.982 198.734 100.121 200.898 95.008C203.06 89.895 209.135 87.453 214.453 89.559C219.771 91.665 222.332 97.525 220.169 102.639Z" fill="var(--colors-category-artistic-high1)"/>
<path fill-rule="evenodd" clip-rule="evenodd" d="M243.995 120.725C241.832 125.838 235.758 128.28 230.44 126.175C225.121 124.069 222.56 118.208 224.724 113.095C226.886 107.982 232.96 105.54 238.279 107.646C243.597 109.751 246.158 115.612 243.995 120.725Z" fill="var(--colors-category-artistic-high1)"/>
<path fill-rule="evenodd" clip-rule="evenodd" d="M209.238 63.172C212.432 63.464 219.318 60.609 217.053 49.194C214.944 38.562 212.094 38.063 212.297 27.861C212.27 27.572 212.064 27.332 211.783 27.262C211.502 27.193 211.208 27.309 211.049 27.552C206.117 35.21 190.789 61.485 209.238 63.172Z" fill="var(--colors-category-artistic-high2)"/>
<path fill-rule="evenodd" clip-rule="evenodd" d="M213.326 62.347C209.947 61.888 206.434 61.609 202.656 62.347C196.115 77.451 196.906 118.72 202.475 186.61C202.619 188.375 203.672 189.936 205.252 190.725C206.886 191.554 208.505 191.782 210.125 191.17C212.003 190.5 213.308 188.78 213.452 186.786C218.063 122.804 219.212 63.022 213.326 62.347Z" fill="var(--colors-category-artistic-high1)"/>
<path fill-rule="evenodd" clip-rule="evenodd" d="M199.817 73.08C205.538 72.193 211.09 72.319 216.507 73.394C216.507 73.394 215.627 63.077 214.024 60.548C213.076 59.053 203.985 58.737 203.298 60.022C202.18 62.109 201.105 62.895 199.817 73.08Z" fill="var(--colors-category-artistic-low2)"/>
<path fill-rule="evenodd" clip-rule="evenodd" d="M175.944 167.582L227.545 72.9771C231.89 74.5091 236.041 76.8451 240.139 79.8921L188.538 174.497C184.358 171.843 180.14 169.583 175.944 167.582Z" fill="var(--colors-category-artistic-low2)"/>
<path fill-rule="evenodd" clip-rule="evenodd" d="M227.545 72.977C227.545 72.977 237.461 64.881 241.034 61.964C241.243 61.793 241.534 61.767 241.77 61.897C242.007 62.027 242.141 62.287 242.11 62.556C241.578 67.16 240.099 79.965 240.099 79.965C236.563 77.217 232.392 74.878 227.545 72.977Z" fill="var(--colors-category-artistic-low1)"/>
<path fill-rule="evenodd" clip-rule="evenodd" d="M188.538 174.497L186.597 178.057C184.855 181.25 180.62 182.292 177.145 180.384C173.67 178.476 172.261 174.335 174.002 171.142L175.944 167.582C180.36 169.443 184.599 171.692 188.538 174.497Z" fill="var(--colors-category-artistic-low1)"/>
</svg>
