<svg width="300" height="200" viewBox="0 0 300 200" fill="none" xmlns="http://www.w3.org/2000/svg">
<path fill-rule="evenodd" clip-rule="evenodd" d="M100.943 39.1808C99.7169 30.7658 91.9129 24.9338 83.5259 26.1638L53.1362 30.6238C44.7502 31.8538 38.9365 39.6838 40.1634 48.0988L44.6076 78.5898C45.8345 87.0038 53.6385 92.8358 62.0246 91.6058L92.4143 87.1468C100.801 85.9158 106.614 78.0858 105.387 69.6718L100.943 39.1808Z" fill="var(--colors-category-mathematics-low1)"/>
<path d="M65.123 53.2188C64.4701 52.9088 63.7954 52.4398 63.0967 51.8118C62.399 51.1838 61.9565 50.2338 61.7711 48.9618C61.4243 46.5778 62.6263 44.6968 65.3781 43.3188L71.703 40.0768L73.9007 39.7538C75.604 39.5048 77.0233 39.8038 78.1575 40.6518C79.2927 41.4998 79.9854 42.7788 80.2336 44.4868L84.7605 75.5438C84.3429 75.7268 83.7359 75.9378 82.9416 76.1758C82.1472 76.4148 81.2741 76.6038 80.3233 76.7428C78.3429 77.0338 76.8698 76.9148 75.903 76.3868C74.9353 75.8588 74.3163 74.6618 74.0442 72.7938L70.7941 50.4998L65.123 53.2188Z" fill="var(--colors-category-mathematics-high1)"/>
<path fill-rule="evenodd" clip-rule="evenodd" d="M181.023 51.6807C182.557 43.3177 177.036 35.2787 168.7 33.7397L138.493 28.1627C130.158 26.6237 122.146 32.1647 120.612 40.5277L115.053 70.8347C113.52 79.1977 119.042 87.2377 127.378 88.7767L157.584 94.3527C165.92 95.8917 173.932 90.3507 175.466 81.9877L181.023 51.6807Z" fill="var(--colors-category-mathematics-high1)"/>
<path d="M138.522 46.2387C138.898 44.1857 140.144 42.8327 142.258 42.1817C144.371 41.5307 147.062 41.5067 150.33 42.1097C152.652 42.5387 154.647 43.2027 156.313 44.1027C157.979 45.0027 159.313 46.0547 160.313 47.2607C161.313 48.4657 161.985 49.7947 162.329 51.2467C162.674 52.6987 162.705 54.1947 162.422 55.7357C161.661 59.8827 158.594 63.4007 153.221 66.2877L144.345 71.0807L158.518 73.6977C158.674 74.1757 158.799 74.7707 158.892 75.4817C158.986 76.1937 158.96 76.9437 158.815 77.7337C158.555 79.1557 158.053 80.1147 157.311 80.6107C156.568 81.1067 155.685 81.2607 154.662 81.0717L134.171 77.2887C133.413 76.5367 132.874 75.6507 132.552 74.6317C132.23 73.6127 132.185 72.4707 132.417 71.2067C132.663 69.8637 133.147 68.7787 133.868 67.9527C134.589 67.1257 135.336 66.4977 136.106 66.0687L145.538 60.5817C146.721 59.9017 147.71 59.2777 148.506 58.7107C149.302 58.1427 149.957 57.6207 150.472 57.1437C150.987 56.6667 151.376 56.2077 151.641 55.7667C151.905 55.3257 152.076 54.8877 152.156 54.4527C152.359 53.3467 152.075 52.3967 151.306 51.6007C150.536 50.8057 149.363 50.2617 147.788 49.9717C146.214 49.6807 144.762 49.6677 143.431 49.9327C142.1 50.1977 140.971 50.5297 140.042 50.9307C139.46 50.3327 139.018 49.6387 138.715 48.8477C138.413 48.0567 138.348 47.1867 138.522 46.2387Z" fill="var(--colors-category-mathematics-low1)"/>
<path fill-rule="evenodd" clip-rule="evenodd" d="M254.667 41.1137C253.255 32.7287 245.324 27.0717 236.966 28.4887L206.683 33.6227C198.326 35.0397 192.688 42.9967 194.099 51.3817L199.217 81.7667C200.63 90.1517 208.56 95.8087 216.917 94.3917L247.201 89.2577C255.558 87.8407 261.197 79.8827 259.784 71.4987L254.667 41.1137Z" fill="var(--colors-category-mathematics-low2)"/>
<path d="M222.206 42.7227C226.745 41.9527 230.357 42.3077 233.042 43.7877C235.727 45.2667 237.337 47.5907 237.87 50.7587C238.19 52.6597 237.959 54.3587 237.176 55.8557C236.393 57.3537 235.368 58.5557 234.099 59.4627C234.982 59.6397 235.818 59.9047 236.608 60.2597C237.399 60.6147 238.13 61.1017 238.803 61.7207C239.476 62.3397 240.05 63.0977 240.525 63.9947C241.002 64.8917 241.346 65.9737 241.559 67.2407C241.846 68.9437 241.738 70.5297 241.234 72.0007C240.731 73.4707 239.908 74.7917 238.765 75.9627C237.623 77.1337 236.196 78.1187 234.484 78.9187C232.771 79.7177 230.849 80.2987 228.718 80.6597C224.612 81.3557 221.418 81.3067 219.133 80.5127C216.847 79.7197 215.555 78.4317 215.255 76.6497C215.074 75.5797 215.176 74.6157 215.559 73.7567C215.941 72.8977 216.472 72.1867 217.148 71.6237C218.03 72.0447 219.185 72.4497 220.611 72.8387C222.036 73.2287 223.815 73.2427 225.946 72.8817C227.959 72.5407 229.389 71.9317 230.236 71.0547C231.083 70.1777 231.41 69.1647 231.216 68.0167C231.023 66.8687 230.491 66.0627 229.622 65.5987C228.752 65.1357 227.369 65.0637 225.476 65.3857L219.91 66.3287C219.56 65.9397 219.233 65.4457 218.929 64.8457C218.625 64.2457 218.4 63.5097 218.254 62.6387C218.1 61.7277 218.057 60.9307 218.124 60.2467C218.192 59.5637 218.347 58.9767 218.59 58.4877L224.155 57.5447C226.996 57.0627 228.234 55.7327 227.868 53.5547C227.694 52.5247 227.1 51.7697 226.086 51.2907C225.071 50.8107 223.656 50.7247 221.84 51.0327C220.222 51.3067 218.833 51.7357 217.673 52.3197C216.512 52.9037 215.585 53.5397 214.888 54.2277C214.137 53.8657 213.487 53.3757 212.935 52.7557C212.384 52.1367 212.029 51.3517 211.869 50.4017C211.535 48.4217 212.316 46.7917 214.212 45.5137C216.108 44.2347 218.773 43.3047 222.206 42.7227Z" fill="var(--colors-category-mathematics-normal)"/>
<path fill-rule="evenodd" clip-rule="evenodd" d="M105.893 125.866C106.086 117.364 99.3641 110.305 90.8904 110.111L60.1857 109.408C51.712 109.214 44.6754 115.959 44.4831 124.461L43.7824 155.268C43.589 163.77 50.3116 170.829 58.7854 171.023L89.49 171.726C97.9638 171.92 104.999 165.175 105.193 156.673L105.893 125.866Z" fill="var(--colors-category-mathematics-high2)"/>
<path d="M74.1042 122.623C74.8697 122.399 75.7447 122.219 76.7295 122.08C77.7132 121.942 78.6052 121.882 79.4055 121.901C80.3265 121.922 81.2145 122.032 82.0706 122.233C82.9268 122.433 83.6903 122.752 84.361 123.189C85.0318 123.626 85.559 124.211 85.9427 124.943C86.3275 125.675 86.5069 126.583 86.4819 127.667L86.1182 143.687L90.8603 143.796C91.0906 144.243 91.3168 144.831 91.5411 145.559C91.7643 146.287 91.867 147.053 91.8491 147.856C91.8142 149.382 91.4494 150.458 90.7547 151.085C90.059 151.712 89.1919 152.013 88.1514 151.989L85.9298 151.939L85.7683 159.046C85.3268 159.116 84.664 159.211 83.78 159.331C82.8969 159.452 82.0547 159.503 81.2544 159.485C80.3743 159.464 79.5949 159.406 78.9162 159.311C78.2374 159.215 77.6713 159.011 77.2178 158.699C76.7643 158.388 76.4245 157.948 76.1972 157.38C75.97 156.813 75.8673 156.047 75.8893 155.083L75.966 151.711L61.7394 151.385C60.8295 150.882 60.055 150.151 59.4162 149.193C58.7773 148.234 58.4733 147.072 58.5052 145.707C58.5221 144.944 58.6308 144.103 58.8321 143.184C59.0334 142.264 59.4022 141.469 59.9374 140.799L74.1042 122.623ZM76.9507 132.149L76.7105 132.143L69.07 143.297L76.6936 143.472L76.9507 132.149Z" fill="var(--colors-category-mathematics-normal)"/>
<path fill-rule="evenodd" clip-rule="evenodd" d="M178.281 120.225C176.864 111.84 168.93 106.188 160.573 107.609L130.292 112.761C121.936 114.182 116.302 122.143 117.719 130.527L122.853 160.909C124.27 169.293 132.205 174.946 140.561 173.525L170.842 168.373C179.198 166.952 184.833 158.991 183.415 150.606L178.281 120.225Z" fill="var(--colors-category-mathematics-low1)"/>
<path d="M137.019 129.948C136.85 128.226 137.155 126.789 137.935 125.638C138.714 124.486 139.953 123.767 141.651 123.478L158.7 120.577C159.05 120.966 159.389 121.478 159.72 122.115C160.051 122.751 160.287 123.485 160.428 124.316C160.675 125.781 160.54 126.904 160.022 127.685C159.505 128.465 158.694 128.95 157.588 129.138L146.222 131.071L146.752 136.725C147.467 136.399 148.197 136.092 148.94 135.803C149.683 135.513 150.647 135.268 151.831 135.067C153.883 134.718 155.72 134.721 157.343 135.076C158.967 135.431 160.361 136.059 161.529 136.961C162.696 137.862 163.637 138.985 164.352 140.33C165.067 141.675 165.561 143.159 165.835 144.783C166.109 146.406 166.087 148.019 165.769 149.621C165.451 151.223 164.786 152.691 163.773 154.024C162.76 155.357 161.383 156.518 159.642 157.507C157.9 158.496 155.728 159.212 153.123 159.655C151.307 159.964 149.637 160.105 148.11 160.08C146.583 160.055 145.24 159.855 144.08 159.482C142.921 159.109 141.977 158.567 141.248 157.856C140.518 157.145 140.064 156.255 139.883 155.186C139.696 154.077 139.855 153.093 140.359 152.233C140.863 151.373 141.473 150.658 142.189 150.089C143.435 150.732 144.74 151.253 146.107 151.652C147.473 152.051 149.124 152.086 151.057 151.757C152.912 151.442 154.194 150.796 154.902 149.82C155.61 148.844 155.863 147.762 155.663 146.574C155.469 145.426 154.933 144.539 154.056 143.915C153.179 143.29 151.892 143.122 150.195 143.41C149.13 143.592 148.262 143.862 147.592 144.22C146.921 144.578 146.17 145.053 145.335 145.643C143.388 145.892 141.77 145.628 140.481 144.849C139.193 144.07 138.377 142.671 138.036 140.652C138.016 140.533 137.991 140.385 137.961 140.206C137.931 140.028 137.888 139.659 137.834 139.097L137.019 129.948Z" fill="var(--colors-category-mathematics-high1)"/>
<path d="M204.112 140.567C204.112 138.353 204.795 136.509 206.161 135.033C207.527 133.557 209.392 132.819 211.756 132.819C214.119 132.819 215.984 133.557 217.35 135.033C218.716 136.509 219.398 138.353 219.398 140.567C219.398 142.781 218.716 144.625 217.35 146.101C215.984 147.577 214.119 148.314 211.756 148.314C209.392 148.314 207.527 147.577 206.161 146.101C204.795 144.625 204.112 142.781 204.112 140.567Z" fill="var(--colors-category-mathematics-high1)"/>
<path d="M222.865 140.567C222.865 138.353 223.548 136.509 224.913 135.033C226.279 133.557 228.144 132.819 230.508 132.819C232.872 132.819 234.737 133.557 236.102 135.033C237.468 136.509 238.151 138.353 238.151 140.567C238.151 142.781 237.468 144.625 236.102 146.101C234.737 147.577 232.872 148.314 230.508 148.314C228.144 148.314 226.279 147.577 224.913 146.101C223.548 144.625 222.865 142.781 222.865 140.567Z" fill="var(--colors-category-mathematics-high1)"/>
<path d="M241.618 140.567C241.618 138.353 242.301 136.509 243.667 135.033C245.033 133.557 246.898 132.819 249.262 132.819C251.625 132.819 253.49 133.557 254.856 135.033C256.221 136.509 256.904 138.353 256.904 140.567C256.904 142.781 256.221 144.625 254.856 146.101C253.49 147.577 251.625 148.314 249.262 148.314C246.898 148.314 245.033 147.577 243.667 146.101C242.301 144.625 241.618 142.781 241.618 140.567Z" fill="var(--colors-category-mathematics-high1)"/>
</svg>
