<svg width="300" height="200" viewBox="0 0 300 200" fill="none" xmlns="http://www.w3.org/2000/svg">
<path d="M149.981 156.87C182.86 156.87 209.514 130.26 209.514 97.4348C209.514 64.6099 182.86 38 149.981 38C117.101 38 90.4473 64.6099 90.4473 97.4348C90.4473 130.26 117.101 156.87 149.981 156.87Z" fill="var(--colors-category-sciences-low1)"/>
<path fill-rule="evenodd" clip-rule="evenodd" d="M207.758 57.6287C190.495 57.0761 167.563 59.9918 143.089 66.5388L142.766 65.3313L143.089 66.5388C118.613 73.0859 97.2932 82.0078 82.6201 91.1033C75.2766 95.6554 69.661 100.213 66.1396 104.487C62.5938 108.791 61.352 112.574 62.1914 115.702C63.031 118.83 66.002 121.487 71.2288 123.445C76.4195 125.389 83.5655 126.532 92.2051 126.809C109.468 127.362 132.4 124.446 156.875 117.899C181.35 111.351 202.67 102.429 217.343 93.3335C224.686 88.7814 230.302 84.2243 233.823 79.9499C237.369 75.646 238.611 71.8627 237.772 68.7349C236.932 65.6069 233.961 62.9499 228.734 60.9925C223.543 59.0486 216.398 57.9052 207.758 57.6287ZM229.611 58.6513C235.123 60.7154 239.034 63.7955 240.186 68.0869C241.338 72.379 239.493 77 235.753 81.5396C231.989 86.1088 226.12 90.8342 218.66 95.4584C203.727 104.716 182.165 113.721 157.521 120.314C132.877 126.906 109.694 129.87 92.1251 129.308C83.3488 129.027 75.9 127.864 70.352 125.786C64.8402 123.722 60.9286 120.641 59.7768 116.35C58.6249 112.058 60.4702 107.437 64.2101 102.897C67.9744 98.328 73.8432 93.6026 81.303 88.9784C96.2365 79.7215 117.798 70.716 142.442 64.1238C167.086 57.5315 190.269 54.5676 207.838 55.13C216.614 55.4109 224.063 56.5736 229.611 58.6513Z" fill="var(--colors-category-sciences-high2)"/>
<path fill-rule="evenodd" clip-rule="evenodd" d="M222.43 51.2784C200.747 50.5843 171.964 54.246 141.256 62.4602C110.549 70.6744 83.7886 81.871 65.3593 93.2951C56.1376 99.0115 49.0649 104.746 44.619 110.143C40.1488 115.569 38.5153 120.419 39.6074 124.488C40.6996 128.557 44.5438 131.942 51.1331 134.41C57.6863 136.865 66.6839 138.301 77.5332 138.648C99.2152 139.342 127.999 135.68 158.706 127.466C189.413 119.252 216.174 108.055 234.604 96.6308C243.826 90.9143 250.898 85.1794 255.344 79.783C259.815 74.3571 261.448 69.5074 260.356 65.4384C259.264 61.3688 255.419 57.9838 248.83 55.516C242.277 53.0617 233.279 51.6257 222.43 51.2784ZM249.707 53.1748C256.581 55.7493 261.366 59.5574 262.771 64.7903C264.175 70.0238 261.938 75.7111 257.274 81.3727C252.585 87.0639 245.259 92.9671 235.921 98.7557C217.231 110.341 190.228 121.622 159.352 129.881C128.476 138.141 99.4413 141.85 77.4532 141.147C66.4673 140.795 57.1667 139.339 50.2563 136.751C43.3821 134.177 38.5973 130.369 37.1928 125.136L38.4001 124.812L37.1928 125.136C35.7882 119.902 38.0252 114.215 42.6895 108.553C47.3783 102.862 54.7042 96.9587 64.0421 91.1702C82.732 79.5846 109.734 68.3045 140.61 60.0451L140.83 60.8673L140.61 60.0451C171.487 51.7857 200.521 48.0758 222.51 48.7797C233.496 49.1314 242.796 50.5868 249.707 53.1748Z" fill="var(--colors-category-sciences-high2)"/>
<path fill-rule="evenodd" clip-rule="evenodd" d="M197.504 61.6488C205.042 71.607 90.4473 110.867 90.4473 97.4348C90.4473 94.9771 90.5968 92.5532 90.8878 90.1731C94.4798 60.79 119.586 38 149.981 38C169.385 38 186.633 47.2876 197.504 61.6488Z" fill="var(--colors-category-sciences-low1)"/>
<path d="M209.229 108.029C214.539 108.029 218.844 103.731 218.844 98.4298C218.844 93.1284 214.539 88.8308 209.229 88.8308C203.919 88.8308 199.614 93.1284 199.614 98.4298C199.614 103.731 203.919 108.029 209.229 108.029Z" fill="var(--colors-category-sciences-high1)"/>
<path d="M250.881 94.1583C256.986 94.1583 261.934 89.2178 261.934 83.1235C261.934 77.0291 256.986 72.0886 250.881 72.0886C244.777 72.0886 239.828 77.0291 239.828 83.1235C239.828 89.2178 244.777 94.1583 250.881 94.1583Z" fill="var(--colors-category-sciences-low2)"/>
<path fill-rule="evenodd" clip-rule="evenodd" d="M203.63 102.231C203.926 102.854 203.662 103.6 203.038 103.897C190.127 110.043 174.565 115.754 157.521 120.314L157.521 120.314C135.971 126.078 115.844 129.089 99.3106 129.374C98.6203 129.386 98.0511 128.836 98.0393 128.146C98.0274 127.456 98.5773 126.886 99.2675 126.875C115.554 126.594 135.475 123.623 156.875 117.899C173.789 113.374 189.205 107.712 201.964 101.639C202.587 101.343 203.333 101.608 203.63 102.231Z" fill="var(--colors-category-sciences-high2)"/>
<path fill-rule="evenodd" clip-rule="evenodd" d="M68.0966 76.741C69.3964 77.2069 70.0723 78.6382 69.6065 79.938C62.8049 98.9134 60.4552 110.726 59.7236 121.398C59.3559 126.763 59.3939 131.881 59.5037 137.562C59.5216 138.487 59.5414 139.427 59.5615 140.385C59.6648 145.293 59.7779 150.669 59.6954 156.904C59.6771 158.284 58.5431 159.389 57.1625 159.37C55.7819 159.352 54.6775 158.218 54.6958 156.837C54.7771 150.696 54.6661 145.415 54.563 140.509C54.5427 139.545 54.5228 138.596 54.5046 137.658C54.3945 131.958 54.3516 126.654 54.7353 121.056C55.5067 109.804 57.9899 97.5282 64.8997 78.2509C65.3656 76.9511 66.7969 76.2752 68.0966 76.741Z" fill="var(--colors-category-sciences-low2)"/>
<path fill-rule="evenodd" clip-rule="evenodd" d="M143.045 94.5662C143.331 94.6488 143.638 94.5801 143.86 94.3851C144.082 94.19 144.19 93.8945 144.144 93.602C139.343 66.8139 84.8545 34.7154 67.8232 72.2388C67.896 106.007 125.653 90.5184 143.045 94.5662Z" fill="var(--colors-category-sciences-low2)"/>
<path fill-rule="evenodd" clip-rule="evenodd" d="M102.51 67.4006C91.8044 63.9266 81.8227 64.4742 73.371 70.9236C73.0417 71.1749 72.5711 71.1117 72.3198 70.7824C72.0685 70.4531 72.1318 69.9825 72.4611 69.7312C81.4143 62.899 91.9483 62.3963 102.973 65.9739C113.974 69.5439 125.533 77.1928 136.696 86.7834C137.01 87.0534 137.046 87.5269 136.776 87.8411C136.506 88.1552 136.032 88.1911 135.718 87.9212C124.621 78.3864 113.238 70.8821 102.51 67.4006Z" fill="var(--colors-category-sciences-low1)"/>
<path fill-rule="evenodd" clip-rule="evenodd" d="M2.39127 81.1303C2.02948 80.8925 1.89792 80.4249 2.0843 80.0338C13.5232 56.4537 58.4743 41.5184 70.1843 76.8468C48.8474 92.9084 13.9717 88.2856 2.39127 81.1303Z" fill="var(--colors-category-sciences-low2)"/>
<path fill-rule="evenodd" clip-rule="evenodd" d="M39.8172 62.3627C49.9245 61.6155 58.9759 65.0767 66.6747 72.7637C66.9678 73.0564 66.9682 73.5313 66.6755 73.8244C66.3828 74.1175 65.908 74.1179 65.6148 73.8252C58.204 66.4257 49.5723 63.1456 39.9278 63.8586C30.2492 64.5741 19.4752 69.3178 7.84655 78.1291C7.5164 78.3792 7.04598 78.3144 6.79582 77.9842C6.54566 77.6541 6.6105 77.1837 6.94065 76.9335C18.6971 68.0254 29.7439 63.1074 39.8172 62.3627Z" fill="var(--colors-category-sciences-low1)"/>
</svg>
