<svg width="32" height="32" viewBox="0 0 32 32" fill="none" xmlns="http://www.w3.org/2000/svg">
<g clip-path="url(#clip0_981_344)">
<path d="M0 4C0 1.79086 1.79086 0 4 0H28C30.2091 0 32 1.79086 32 4V28C32 30.2091 30.2091 32 28 32H4C1.79086 32 0 30.2091 0 28V4Z" fill="url(#paint0_linear_981_344)"/>
<path fill-rule="evenodd" clip-rule="evenodd" d="M19.5774 4.61856C21.1601 5.03239 22.6855 5.814 24.0404 7.19809C25.3585 8.5445 26.4883 10.4381 27.3492 13.0692C28.2908 15.9453 29.7085 22.6711 30.5565 27.6971C31.2352 31.7203 33.9883 40.5033 29.2014 40.5033L3.84196 40.5033C-0.844423 40.5033 1.01263 32.1521 1.37968 28.7488C1.41023 28.4662 2.97378 13.2948 2.97378 13.2948L2.97405 13.2929C3.22884 10.8839 4.20055 9.12936 5.48826 7.82673C6.94258 6.35578 8.81099 5.47025 10.5061 4.88724C11.5675 4.52203 12.737 4.16051 14.2004 4.04124C15.6609 3.92211 17.3836 4.04536 19.5774 4.61856ZM19.2401 5.99682C17.2276 5.47096 15.6483 5.34913 14.3087 5.45845C12.9741 5.5672 11.9087 5.90299 10.9405 6.23608C9.4272 6.75653 7.74904 7.52932 6.45074 8.84262C5.36691 9.93897 4.55632 11.4193 4.3417 13.4467C4.32533 13.6065 2.77732 28.625 2.74705 28.9064C2.47163 31.46 1.41085 39.0824 3.84155 39.0817H29.2011C32.1904 39.081 29.7271 31.0594 29.2011 27.9414C28.3655 22.9884 26.9739 16.3589 26.0461 13.5247C25.268 11.1471 24.2642 9.42577 23.0732 8.20914C21.9099 7.02081 20.5989 6.35208 19.2401 5.99682Z" fill="#F6F6F7"/>
<path d="M19.1506 5.9069C20.5094 6.26217 21.8204 6.9309 22.9837 8.11923C24.1747 9.33585 25.2294 11.0348 26.0075 13.4124C26.9353 16.2466 28.3441 22.8529 29.1797 27.8058C29.7057 30.9238 32.2637 39.0887 29.2745 39.0894L3.79797 39.0894C1.36728 39.0901 2.38211 31.3701 2.65753 28.8165C2.6878 28.5351 4.23581 13.5166 4.25218 13.3568C4.4668 11.3294 5.2774 9.84906 6.36122 8.7527C7.65953 7.43941 9.33768 6.66662 10.851 6.14616C11.8191 5.81308 12.8845 5.47729 14.2192 5.36854C15.5587 5.25921 17.1381 5.38105 19.1506 5.9069Z" fill="#6B85D9"/>
<path fill-rule="evenodd" clip-rule="evenodd" d="M9.69639 16.177C9.0202 16.6253 9.71056 18.5339 10.9349 17.7599C12.1569 16.9857 11.224 15.1684 9.69639 16.177Z" fill="#21305E"/>
<path fill-rule="evenodd" clip-rule="evenodd" d="M20.9044 17.0098C21.5297 16.6152 20.935 14.8582 19.8045 15.541C18.674 16.2238 19.4908 17.9013 20.9044 17.0098Z" fill="#21305E"/>
<path fill-rule="evenodd" clip-rule="evenodd" d="M12.2698 21.6076C11.6865 22.1773 11.61 22.6842 14.0403 24.2533C16.4691 25.8222 16.4765 26.9868 17.8816 25.3136C19.2868 23.641 20.3518 21.5796 19.6918 21.0913C19.0335 20.6033 16.5782 17.3975 12.2698 21.6076Z" fill="#F7CD62"/>
<path fill-rule="evenodd" clip-rule="evenodd" d="M12.9722 22.346C12.2063 22.0506 11.4358 22.1898 13.8648 23.7587C16.295 25.3277 16.6412 26.1884 18.0464 24.5157C19.4516 22.8426 19.9023 21.3473 19.7152 21.4575C18.5206 22.1598 18.3174 23.2677 16.5101 23.319C15.208 23.3558 14.4171 22.9036 12.9722 22.346Z" fill="#DD8F46"/>
<path fill-rule="evenodd" clip-rule="evenodd" d="M27.6115 32.4245C27.3062 31.5084 26.9794 30.7746 26.7075 30.1079C25.9411 28.2284 25.1628 27.4034 24.3595 27.1484C23.566 26.8965 22.7356 27.2479 21.8078 27.7132C21.624 27.8053 21.4369 27.9021 21.2459 28.0009C20.0348 28.6279 18.6763 29.331 17.0914 29.3825C15.4937 29.4345 14.1731 29.3553 13.0267 29.2866C12.305 29.2434 11.6523 29.2043 11.043 29.2046C9.52387 29.2053 8.28321 29.4578 6.89465 30.5591C6.49912 30.8722 6.09245 31.6753 5.65014 32.8391C5.59236 32.9917 5.53402 33.1502 5.47555 33.3145C4.69541 35.5074 3.33071 39.0934 3.84318 39.0932H29.3728C30.5739 39.0929 28.1748 34.1151 27.6115 32.4245Z" fill="#EDF0FA"/>
</g>
<defs>
<linearGradient id="paint0_linear_981_344" x1="16" y1="0" x2="16" y2="32" gradientUnits="userSpaceOnUse">
<stop stop-color="#2A3C77"/>
<stop offset="1" stop-color="#151D32"/>
</linearGradient>
<clipPath id="clip0_981_344">
<path d="M0 4C0 1.79086 1.79086 0 4 0H28C30.2091 0 32 1.79086 32 4V28C32 30.2091 30.2091 32 28 32H4C1.79086 32 0 30.2091 0 28V4Z" fill="white"/>
</clipPath>
</defs>
</svg>
